[
  {
    "app_id": "org.gnome.gitlab.somas.Apostrophe",
    "added": "2020-07-28",
    "last_review": "2020-07-28"
  },
  {
    "app_id": "de.haeckerfelix.Fragments",
    "added": "2020-08-08",
    "last_review": "2020-08-08"
  },
  {
    "app_id": "dev.geopjr.Collision",
    "added": "2021-03-07",
    "last_review": "2021-03-07"
  },
  {
    "app_id": "io.gitlab.news_flash.NewsFlash",
    "added": "2020-09-08",
    "last_review": "2020-09-08"
  },
  {
    "app_id": "com.belmoussaoui.Decoder",
    "added": "2021-08-10",
    "last_review": "2021-08-10"
  },
  {
    "app_id": "com.belmoussaoui.Obfuscate",
    "added": "2020-07-22",
    "last_review": "2020-07-22"
  },
  {
    "app_id": "org.gnome.World.PikaBackup",
    "added": "2020-09-09",
    "last_review": "2020-09-09"
  },
  {
    "app_id": "de.haeckerfelix.Shortwave",
    "added": "2020-07-29",
    "last_review": "2020-07-29"
  },
  {
    "app_id": "org.gnome.Solanum",
    "added": "2020-10-12",
    "last_review": "2020-10-12"
  },
  {
    "app_id": "org.gnome.gitlab.YaLTeR.Identity",
    "added": "2020-11-18",
    "last_review": "2020-11-18"
  },
  {
    "app_id": "org.gnome.World.Secrets",
    "added": "2020-11-18",
    "last_review": "2020-11-18"
  },
  {
    "app_id": "org.gnome.gitlab.YaLTeR.VideoTrimmer",
    "added": "2020-11-18",
    "last_review": "2020-11-18"
  },
  {
    "app_id": "org.gnome.DejaDup",
    "added": "2020-12-08",
    "last_review": "2020-12-08"
  },
  {
    "app_id": "org.gaphor.Gaphor",
    "added": "2020-12-13",
    "last_review": "2020-12-13"
  },
  {
    "app_id": "com.rafaelmardojai.Blanket",
    "added": "2020-12-18",
    "last_review": "2020-12-18"
  },
  {
    "app_id": "app.drey.Dialect",
    "added": "2020-12-22",
    "last_review": "2020-12-22"
  },
  {
    "app_id": "com.rafaelmardojai.WebfontKitGenerator",
    "added": "2020-12-22",
    "last_review": "2020-12-22"
  },
  {
    "app_id": "com.github.huluti.Curtail",
    "added": "2021-01-01",
    "last_review": "2021-01-01"
  },
  {
    "app_id": "re.sonny.Tangram",
    "added": "2021-01-19",
    "last_review": "2021-01-19"
  },
  {
    "app_id": "dev.Cogitri.Health",
    "added": "2021-02-09",
    "last_review": "2021-02-09"
  },
  {
    "app_id": "com.belmoussaoui.Authenticator",
    "added": "2021-02-09",
    "last_review": "2021-02-09"
  },
  {
    "app_id": "com.github.hugolabe.Wike",
    "added": "2021-07-27",
    "last_review": "2021-07-27"
  },
  {
    "app_id": "org.gnome.Podcasts",
    "added": "2021-09-07",
    "last_review": "2021-09-07"
  },
  {
    "app_id": "org.gnome.Polari",
    "added": "2021-09-16",
    "last_review": "2021-09-16"
  },
  {
    "app_id": "com.rafaelmardojai.SharePreview",
    "added": "2021-09-20",
    "last_review": "2021-09-20"
  },
  {
    "app_id": "re.sonny.Commit",
    "added": "2021-09-22",
    "last_review": "2021-09-22"
  },
  {
    "app_id": "io.gitlab.liferooter.TextPieces",
    "added": "2021-10-26",
    "last_review": "2021-10-26"
  },
  {
    "app_id": "io.github.seadve.Mousai",
    "added": "2021-12-17",
    "last_review": "2021-12-17"
  },
  {
    "app_id": "re.sonny.Junction",
    "added": "2022-03-06",
    "last_review": "2022-03-06"
  },
  {
    "app_id": "de.haeckerfelix.AudioSharing",
    "added": "2022-05-17",
    "last_review": "2022-05-17"
  },
  {
    "app_id": "app.drey.Warp",
    "added": "2022-06-04",
    "last_review": "2022-06-04"
  },
  {
    "app_id": "io.bassi.Amberol",
    "added": "2022-07-12",
    "last_review": "2022-07-12"
  },
  {
    "app_id": "org.gnome.World.Citations",
    "added": "2022-08-08",
    "last_review": "2022-08-08"
  },
  {
    "app_id": "com.github.ADBeveridge.Raider",
    "added": "2022-08-08",
    "last_review": "2022-08-08"
  },
  {
    "app_id": "re.sonny.Workbench",
    "added": "2022-09-24",
    "last_review": "2022-09-24"
  },
  {
    "app_id": "com.feaneron.Boatswain",
    "added": "2022-11-22",
    "last_review": "2022-11-22"
  },
  {
    "app_id": "org.gnome.design.Emblem",
    "added": "2022-12-13",
    "last_review": "2022-12-13"
  },
  {
    "app_id": "org.gnome.design.Lorem",
    "added": "2022-12-30",
    "last_review": "2022-12-30"
  },
  {
    "app_id": "eu.fortysixandtwo.chessclock",
    "added": "2023-02-18",
    "last_review": "2023-02-18"
  },
  {
    "app_id": "com.github.finefindus.eyedropper",
    "added": "2023-02-21",
    "last_review": "2023-02-21"
  },
  {
    "app_id": "info.febvre.Komikku",
    "added": "2023-02-23",
    "last_review": "2023-02-23"
  },
  {
    "app_id": "app.drey.Elastic",
    "added": "2023-02-27",
    "last_review": "2023-02-27"
  },
  {
    "app_id": "com.cassidyjames.clairvoyant",
    "added": "2023-03-17",
    "last_review": "2023-03-17"
  },
  {
    "app_id": "page.kramo.Cartridges",
    "added": "2023-05-23",
    "last_review": "2023-05-23"
  },
  {
    "app_id": "app.drey.EarTag",
    "added": "2023-05-28",
    "last_review": "2023-05-28"
  },
  {
    "app_id": "io.github.diegoivan.pdf_metadata_editor",
    "added": "2023-06-26",
    "last_review": "2023-06-26"
  },
  {
    "app_id": "com.mardojai.ForgeSparks",
    "added": "2023-09-02",
    "last_review": "2023-09-02"
  },
  {
    "app_id": "io.gitlab.adhami3310.Impression",
    "added": "2023-09-05",
    "last_review": "2023-09-05"
  },
  {
    "app_id": "io.github.mrvladus.List",
    "added": "2023-09-08",
    "last_review": "2023-09-08"
  },
  {
    "app_id": "io.gitlab.gregorni.Letterpress",
    "added": "2023-09-24",
    "last_review": "2023-09-24"
  },
  {
    "app_id": "io.gitlab.adhami3310.Converter",
    "added": "2023-11-20",
    "last_review": "2023-11-20"
  },
  {
    "app_id": "org.gnome.Decibels",
    "added": "2023-11-22",
    "last_review": "2023-11-22"
  },
  {
    "app_id": "dev.bragefuglseth.Fretboard",
    "added": "2023-12-28",
    "last_review": "2023-12-28"
  },
  {
    "app_id": "se.sjoerd.Graphs",
    "added": "2024-01-14",
    "last_review": "2024-01-14"
  },
  {
    "app_id": "de.schmidhuberj.DieBahn",
    "added": "2024-02-28",
    "last_review": "2024-02-28"
  },
  {
    "app_id": "app.drey.Biblioteca",
    "added": "2024-03-24",
    "last_review": "2024-03-24"
  },
  {
    "app_id": "io.github.finefindus.Hieroglyphic",
    "added": "2024-04-24",
    "last_review": "2024-04-24"
  },
  {
    "app_id": "io.github.idevecore.Valuta",
    "added": "2024-07-11",
    "last_review": "2024-07-11"
  },
  {
    "app_id": "net.nokyan.Resources",
    "added": "2024-08-23",
    "last_review": "2024-08-23"
  },
  {
    "app_id": "dev.geopjr.Tuba",
    "added": "2024-08-26",
    "last_review": "2024-08-26"
  },
  {
    "app_id": "io.github.fizzyizzy05.binary",
    "added": "2024-09-15",
    "last_review": "2024-09-15"
  },
  {
    "app_id": "org.gnome.World.Iotas",
    "added": "2025-01-30",
    "last-review": "2025-01-30"
  },
  {
    "app_id": "io.github.revisto.drum-machine",
    "added": "2025-02-10",
    "last_review": "2025-02-10"
  },
  {
    "app_id": "dev.bragefuglseth.Keypunch",
    "added": "2025-02-15",
    "last_review": "2025-02-15"
  },
  {
    "app_id": "xyz.safeworlds.hiit",
    "added": "2025-03-04",
    "last_review": "2025-03-04"
  }
]
